^sep()
Session ...,^checkout(exit),system-shutdown
^tag(exit)
Suspend,bash -c "sleep 1.5; systemctl suspend",system-suspend
Quit ...,bash -c "$HOME/.config/openbox/scripts/exit.sh",system-log-out
^tag(places)
Desktop,bash -c "nautilus -w $(xdg-user-dir DESKTOP)",folder-desktop
Documents,bash -c "nautilus -w $(xdg-user-dir DOCUMENTS)",folder-documents
Pictures,bash -c "nautilus -w $(xdg-user-dir PICTURES)",folder-pictures
Music,bash -c "nautilus -w $(xdg-user-dir MUSIC)",folder-music
Videos,bash -c "nautilus -w $(xdg-user-dir VIDEOS)",folder-videos
Downloads,bash -c "nautilus -w $(xdg-user-dir DOWNLOAD)",folder-downloads